^D:\ННГУ\ПРОГРАММИРОВАНИЕ\C++\OPENCV\RECOLOR_NUMERALS_SUKHOV\OPENCVPROGRAM\MAIN.CPP
C:\WINDOWS\GLOBALIZATION\SORTING\SORTDEFAULT.NLS
D:\PROGRAM FILES (X86)\VC\BIN\1049\CLUI.DLL
C:\WINDOWS\SYSTEM32\TZRES.DLL
D:\PROGRAM FILES (X86)\VC\INCLUDE\IOSTREAM
D:\PROGRAM FILES (X86)\VC\INCLUDE\ISTREAM
D:\PROGRAM FILES (X86)\VC\INCLUDE\OSTREAM
D:\PROGRAM FILES (X86)\VC\INCLUDE\IOS
D:\PROGRAM FILES (X86)\VC\INCLUDE\XLOCNUM
D:\PROGRAM FILES (X86)\VC\INCLUDE\CLIMITS
D:\PROGRAM FILES (X86)\VC\INCLUDE\YVALS.H
D:\PROGRAM FILES (X86)\VC\INCLUDE\XKEYCHECK.H
D:\PROGRAM FILES (X86)\VC\INCLUDE\CRTDEFS.H
D:\PROGRAM FILES (X86)\VC\INCLUDE\VCRUNTIME.H
D:\PROGRAM FILES (X86)\VC\INCLUDE\SAL.H
D:\PROGRAM FILES (X86)\VC\INCLUDE\CONCURRENCYSAL.H
D:\PROGRAM FILES (X86)\VC\INCLUDE\VADEFS.H
C:\PROGRAM FILES (X86)\WINDOWS KITS\10\INCLUDE\10.0.10150.0\UCRT\CORECRT.H
D:\PROGRAM FILES (X86)\VC\INCLUDE\USE_ANSI.H
D:\PROGRAM FILES (X86)\VC\INCLUDE\LIMITS.H
D:\PROGRAM FILES (X86)\VC\INCLUDE\CMATH
C:\PROGRAM FILES (X86)\WINDOWS KITS\10\INCLUDE\10.0.10150.0\UCRT\MATH.H
D:\PROGRAM FILES (X86)\VC\INCLUDE\XTGMATH.H
D:\PROGRAM FILES (X86)\VC\INCLUDE\XTR1COMMON
D:\PROGRAM FILES (X86)\VC\INCLUDE\CSTDLIB
C:\PROGRAM FILES (X86)\WINDOWS KITS\10\INCLUDE\10.0.10150.0\UCRT\STDLIB.H
C:\PROGRAM FILES (X86)\WINDOWS KITS\10\INCLUDE\10.0.10150.0\UCRT\CORECRT_MALLOC.H
C:\PROGRAM FILES (X86)\WINDOWS KITS\10\INCLUDE\10.0.10150.0\UCRT\CORECRT_SEARCH.H
C:\PROGRAM FILES (X86)\WINDOWS KITS\10\INCLUDE\10.0.10150.0\UCRT\STDDEF.H
C:\PROGRAM FILES (X86)\WINDOWS KITS\10\INCLUDE\10.0.10150.0\UCRT\CORECRT_WSTDLIB.H
D:\PROGRAM FILES (X86)\VC\INCLUDE\CSTDIO
C:\PROGRAM FILES (X86)\WINDOWS KITS\10\INCLUDE\10.0.10150.0\UCRT\STDIO.H
C:\PROGRAM FILES (X86)\WINDOWS KITS\10\INCLUDE\10.0.10150.0\UCRT\CORECRT_WSTDIO.H
C:\PROGRAM FILES (X86)\WINDOWS KITS\10\INCLUDE\10.0.10150.0\UCRT\CORECRT_STDIO_CONFIG.H
D:\PROGRAM FILES (X86)\VC\INCLUDE\STREAMBUF
D:\PROGRAM FILES (X86)\VC\INCLUDE\XIOSBASE
D:\PROGRAM FILES (X86)\VC\INCLUDE\XLOCALE
D:\PROGRAM FILES (X86)\VC\INCLUDE\CSTRING
C:\PROGRAM FILES (X86)\WINDOWS KITS\10\INCLUDE\10.0.10150.0\UCRT\STRING.H
C:\PROGRAM FILES (X86)\WINDOWS KITS\10\INCLUDE\10.0.10150.0\UCRT\CORECRT_MEMORY.H
C:\PROGRAM FILES (X86)\WINDOWS KITS\10\INCLUDE\10.0.10150.0\UCRT\CORECRT_MEMCPY_S.H
C:\PROGRAM FILES (X86)\WINDOWS KITS\10\INCLUDE\10.0.10150.0\UCRT\ERRNO.H
D:\PROGRAM FILES (X86)\VC\INCLUDE\VCRUNTIME_STRING.H
C:\PROGRAM FILES (X86)\WINDOWS KITS\10\INCLUDE\10.0.10150.0\UCRT\CORECRT_WSTRING.H
D:\PROGRAM FILES (X86)\VC\INCLUDE\STDEXCEPT
D:\PROGRAM FILES (X86)\VC\INCLUDE\EXCEPTION
D:\PROGRAM FILES (X86)\VC\INCLUDE\TYPE_TRAITS
D:\PROGRAM FILES (X86)\VC\INCLUDE\XSTDDEF
D:\PROGRAM FILES (X86)\VC\INCLUDE\CSTDDEF
D:\PROGRAM FILES (X86)\VC\INCLUDE\INITIALIZER_LIST
C:\PROGRAM FILES (X86)\WINDOWS KITS\10\INCLUDE\10.0.10150.0\UCRT\MALLOC.H
D:\PROGRAM FILES (X86)\VC\INCLUDE\VCRUNTIME_EXCEPTION.H
D:\PROGRAM FILES (X86)\VC\INCLUDE\EH.H
C:\PROGRAM FILES (X86)\WINDOWS KITS\10\INCLUDE\10.0.10150.0\UCRT\CORECRT_TERMINATE.H
D:\PROGRAM FILES (X86)\VC\INCLUDE\XSTRING
D:\PROGRAM FILES (X86)\VC\INCLUDE\XMEMORY0
D:\PROGRAM FILES (X86)\VC\INCLUDE\CSTDINT
D:\PROGRAM FILES (X86)\VC\INCLUDE\STDINT.H
D:\PROGRAM FILES (X86)\VC\INCLUDE\LIMITS
D:\PROGRAM FILES (X86)\VC\INCLUDE\YMATH.H
D:\PROGRAM FILES (X86)\VC\INCLUDE\CFLOAT
C:\PROGRAM FILES (X86)\WINDOWS KITS\10\INCLUDE\10.0.10150.0\UCRT\FLOAT.H
D:\PROGRAM FILES (X86)\VC\INCLUDE\CWCHAR
C:\PROGRAM FILES (X86)\WINDOWS KITS\10\INCLUDE\10.0.10150.0\UCRT\WCHAR.H
C:\PROGRAM FILES (X86)\WINDOWS KITS\10\INCLUDE\10.0.10150.0\UCRT\CORECRT_WCONIO.H
C:\PROGRAM FILES (X86)\WINDOWS KITS\10\INCLUDE\10.0.10150.0\UCRT\CORECRT_WCTYPE.H
C:\PROGRAM FILES (X86)\WINDOWS KITS\10\INCLUDE\10.0.10150.0\UCRT\CORECRT_WDIRECT.H
C:\PROGRAM FILES (X86)\WINDOWS KITS\10\INCLUDE\10.0.10150.0\UCRT\CORECRT_WIO.H
C:\PROGRAM FILES (X86)\WINDOWS KITS\10\INCLUDE\10.0.10150.0\UCRT\CORECRT_SHARE.H
C:\PROGRAM FILES (X86)\WINDOWS KITS\10\INCLUDE\10.0.10150.0\UCRT\CORECRT_WPROCESS.H
C:\PROGRAM FILES (X86)\WINDOWS KITS\10\INCLUDE\10.0.10150.0\UCRT\CORECRT_WTIME.H
C:\PROGRAM FILES (X86)\WINDOWS KITS\10\INCLUDE\10.0.10150.0\UCRT\SYS\STAT.H
C:\PROGRAM FILES (X86)\WINDOWS KITS\10\INCLUDE\10.0.10150.0\UCRT\SYS\TYPES.H
D:\PROGRAM FILES (X86)\VC\INCLUDE\NEW
D:\PROGRAM FILES (X86)\VC\INCLUDE\VCRUNTIME_NEW.H
D:\PROGRAM FILES (X86)\VC\INCLUDE\XUTILITY
D:\PROGRAM FILES (X86)\VC\INCLUDE\UTILITY
D:\PROGRAM FILES (X86)\VC\INCLUDE\IOSFWD
C:\PROGRAM FILES (X86)\WINDOWS KITS\10\INCLUDE\10.0.10150.0\UCRT\CRTDBG.H
D:\PROGRAM FILES (X86)\VC\INCLUDE\VCRUNTIME_NEW_DEBUG.H
D:\PROGRAM FILES (X86)\VC\INCLUDE\XATOMIC0.H
D:\PROGRAM FILES (X86)\VC\INCLUDE\INTRIN.H
D:\PROGRAM FILES (X86)\VC\INCLUDE\SETJMP.H
D:\PROGRAM FILES (X86)\VC\INCLUDE\IMMINTRIN.H
D:\PROGRAM FILES (X86)\VC\INCLUDE\WMMINTRIN.H
D:\PROGRAM FILES (X86)\VC\INCLUDE\NMMINTRIN.H
D:\PROGRAM FILES (X86)\VC\INCLUDE\SMMINTRIN.H
D:\PROGRAM FILES (X86)\VC\INCLUDE\TMMINTRIN.H
D:\PROGRAM FILES (X86)\VC\INCLUDE\PMMINTRIN.H
D:\PROGRAM FILES (X86)\VC\INCLUDE\EMMINTRIN.H
D:\PROGRAM FILES (X86)\VC\INCLUDE\XMMINTRIN.H
D:\PROGRAM FILES (X86)\VC\INCLUDE\MMINTRIN.H
D:\PROGRAM FILES (X86)\VC\INCLUDE\AMMINTRIN.H
D:\PROGRAM FILES (X86)\VC\INCLUDE\MM3DNOW.H
D:\PROGRAM FILES (X86)\VC\INCLUDE\TYPEINFO
D:\PROGRAM FILES (X86)\VC\INCLUDE\VCRUNTIME_TYPEINFO.H
D:\PROGRAM FILES (X86)\VC\INCLUDE\XLOCINFO
D:\PROGRAM FILES (X86)\VC\INCLUDE\XLOCINFO.H
C:\PROGRAM FILES (X86)\WINDOWS KITS\10\INCLUDE\10.0.10150.0\UCRT\CTYPE.H
C:\PROGRAM FILES (X86)\WINDOWS KITS\10\INCLUDE\10.0.10150.0\UCRT\LOCALE.H
D:\PROGRAM FILES (X86)\VC\INCLUDE\XFACET
D:\PROGRAM FILES (X86)\VC\INCLUDE\SYSTEM_ERROR
D:\PROGRAM FILES (X86)\VC\INCLUDE\CERRNO
C:\PROGRAM FILES (X86)\WINDOWS KITS\10\INCLUDE\10.0.10150.0\UCRT\SHARE.H
D:\ННГУ\Программирование\C++\OPENCV\RECOLOR_NUMERALS_SUKHOV\INSTRUMENTS\OPENCV300\INCLUDE\OPENCV2\OPENCV.HPP
D:\ННГУ\Программирование\C++\OPENCV\RECOLOR_NUMERALS_SUKHOV\INSTRUMENTS\OPENCV300\INCLUDE\OPENCV2\CORE.HPP
D:\ННГУ\Программирование\C++\OPENCV\RECOLOR_NUMERALS_SUKHOV\INSTRUMENTS\OPENCV300\INCLUDE\OPENCV2\CORE\CVDEF.H
D:\ННГУ\Программирование\C++\OPENCV\RECOLOR_NUMERALS_SUKHOV\INSTRUMENTS\OPENCV300\INCLUDE\OPENCV2\HAL\DEFS.H
D:\PROGRAM FILES (X86)\VC\INCLUDE\ALGORITHM
D:\PROGRAM FILES (X86)\VC\INCLUDE\XMEMORY
D:\ННГУ\Программирование\C++\OPENCV\RECOLOR_NUMERALS_SUKHOV\INSTRUMENTS\OPENCV300\INCLUDE\OPENCV2\CORE\VERSION.HPP
D:\ННГУ\Программирование\C++\OPENCV\RECOLOR_NUMERALS_SUKHOV\INSTRUMENTS\OPENCV300\INCLUDE\OPENCV2\CORE\BASE.HPP
D:\ННГУ\Программирование\C++\OPENCV\RECOLOR_NUMERALS_SUKHOV\INSTRUMENTS\OPENCV300\INCLUDE\OPENCV2\CORE\CVSTD.HPP
D:\PROGRAM FILES (X86)\VC\INCLUDE\CCTYPE
D:\PROGRAM FILES (X86)\VC\INCLUDE\STRING
D:\ННГУ\Программирование\C++\OPENCV\RECOLOR_NUMERALS_SUKHOV\INSTRUMENTS\OPENCV300\INCLUDE\OPENCV2\CORE\PTR.INL.HPP
D:\ННГУ\Программирование\C++\OPENCV\RECOLOR_NUMERALS_SUKHOV\INSTRUMENTS\OPENCV300\INCLUDE\OPENCV2\HAL.HPP
D:\ннгу\программирование\C++\OPENCV\RECOLOR_NUMERALS_SUKHOV\INSTRUMENTS\OPENCV300\INCLUDE\OPENCV2\CORE\SSE_UTILS.HPP
D:\ННГУ\Программирование\C++\OPENCV\RECOLOR_NUMERALS_SUKHOV\INSTRUMENTS\OPENCV300\INCLUDE\OPENCV2\CORE\TRAITS.HPP
D:\ННГУ\Программирование\C++\OPENCV\RECOLOR_NUMERALS_SUKHOV\INSTRUMENTS\OPENCV300\INCLUDE\OPENCV2\CORE\MATX.HPP
D:\ННГУ\Программирование\C++\OPENCV\RECOLOR_NUMERALS_SUKHOV\INSTRUMENTS\OPENCV300\INCLUDE\OPENCV2\CORE\TYPES.HPP
D:\PROGRAM FILES (X86)\VC\INCLUDE\VECTOR
D:\ННГУ\Программирование\C++\OPENCV\RECOLOR_NUMERALS_SUKHOV\INSTRUMENTS\OPENCV300\INCLUDE\OPENCV2\CORE\MAT.HPP
D:\ННГУ\Программирование\C++\OPENCV\RECOLOR_NUMERALS_SUKHOV\INSTRUMENTS\OPENCV300\INCLUDE\OPENCV2\CORE\BUFFERPOOL.HPP
D:\ННГУ\Программирование\C++\OPENCV\RECOLOR_NUMERALS_SUKHOV\INSTRUMENTS\OPENCV300\INCLUDE\OPENCV2\CORE\MAT.INL.HPP
D:\ННГУ\Программирование\C++\OPENCV\RECOLOR_NUMERALS_SUKHOV\INSTRUMENTS\OPENCV300\INCLUDE\OPENCV2\CORE\PERSISTENCE.HPP
D:\ННГУ\Программирование\C++\OPENCV\RECOLOR_NUMERALS_SUKHOV\INSTRUMENTS\OPENCV300\INCLUDE\OPENCV2\CORE\OPERATIONS.HPP
D:\ННГУ\Программирование\C++\OPENCV\RECOLOR_NUMERALS_SUKHOV\INSTRUMENTS\OPENCV300\INCLUDE\OPENCV2\CORE\CVSTD.INL.HPP
D:\PROGRAM FILES (X86)\VC\INCLUDE\COMPLEX
D:\PROGRAM FILES (X86)\VC\INCLUDE\CCOMPLEX
D:\PROGRAM FILES (X86)\VC\INCLUDE\SSTREAM
D:\PROGRAM FILES (X86)\VC\INCLUDE\XCOMPLEX
D:\ННГУ\Программирование\C++\OPENCV\RECOLOR_NUMERALS_SUKHOV\INSTRUMENTS\OPENCV300\INCLUDE\OPENCV2\CORE\UTILITY.HPP
D:\ННГУ\Программирование\C++\OPENCV\RECOLOR_NUMERALS_SUKHOV\INSTRUMENTS\OPENCV300\INCLUDE\OPENCV2\CORE\CORE_C.H
D:\ННГУ\Программирование\C++\OPENCV\RECOLOR_NUMERALS_SUKHOV\INSTRUMENTS\OPENCV300\INCLUDE\OPENCV2\CORE\TYPES_C.H
C:\PROGRAM FILES (X86)\WINDOWS KITS\10\INCLUDE\10.0.10150.0\UCRT\ASSERT.H
D:\ННГУ\Программирование\C++\OPENCV\RECOLOR_NUMERALS_SUKHOV\INSTRUMENTS\OPENCV300\INCLUDE\OPENCV2\CORE\OPTIM.HPP
D:\ННГУ\Программирование\C++\OPENCV\RECOLOR_NUMERALS_SUKHOV\INSTRUMENTS\OPENCV300\INCLUDE\OPENCV2\IMGPROC.HPP
D:\ННГУ\Программирование\C++\OPENCV\RECOLOR_NUMERALS_SUKHOV\INSTRUMENTS\OPENCV300\INCLUDE\OPENCV2\IMGPROC\IMGPROC_C.H
D:\ННГУ\Программирование\C++\OPENCV\RECOLOR_NUMERALS_SUKHOV\INSTRUMENTS\OPENCV300\INCLUDE\OPENCV2\IMGPROC\TYPES_C.H
D:\ННГУ\Программирование\C++\OPENCV\RECOLOR_NUMERALS_SUKHOV\INSTRUMENTS\OPENCV300\INCLUDE\OPENCV2\PHOTO.HPP
D:\ННГУ\Программирование\C++\OPENCV\RECOLOR_NUMERALS_SUKHOV\INSTRUMENTS\OPENCV300\INCLUDE\OPENCV2\PHOTO\PHOTO_C.H
D:\ННГУ\Программирование\C++\OPENCV\RECOLOR_NUMERALS_SUKHOV\INSTRUMENTS\OPENCV300\INCLUDE\OPENCV2\VIDEO.HPP
D:\ННГУ\Программирование\C++\OPENCV\RECOLOR_NUMERALS_SUKHOV\INSTRUMENTS\OPENCV300\INCLUDE\OPENCV2\VIDEO\TRACKING.HPP
D:\ННГУ\Программирование\C++\OPENCV\RECOLOR_NUMERALS_SUKHOV\INSTRUMENTS\OPENCV300\INCLUDE\OPENCV2\VIDEO\BACKGROUND_SEGM.HPP
D:\ННГУ\Программирование\C++\OPENCV\RECOLOR_NUMERALS_SUKHOV\INSTRUMENTS\OPENCV300\INCLUDE\OPENCV2\VIDEO\TRACKING_C.H
D:\ННГУ\Программирование\C++\OPENCV\RECOLOR_NUMERALS_SUKHOV\INSTRUMENTS\OPENCV300\INCLUDE\OPENCV2\FEATURES2D.HPP
D:\ННГУ\Программирование\C++\OPENCV\RECOLOR_NUMERALS_SUKHOV\INSTRUMENTS\OPENCV300\INCLUDE\OPENCV2\FLANN\MINIFLANN.HPP
D:\ННГУ\Программирование\C++\OPENCV\RECOLOR_NUMERALS_SUKHOV\INSTRUMENTS\OPENCV300\INCLUDE\OPENCV2\FLANN\DEFINES.H
D:\ннгу\программирование\C++\OPENCV\RECOLOR_NUMERALS_SUKHOV\INSTRUMENTS\OPENCV300\INCLUDE\OPENCV2\FLANN\CONFIG.H
D:\ННГУ\Программирование\C++\OPENCV\RECOLOR_NUMERALS_SUKHOV\INSTRUMENTS\OPENCV300\INCLUDE\OPENCV2\OBJDETECT.HPP
D:\ННГУ\Программирование\C++\OPENCV\RECOLOR_NUMERALS_SUKHOV\INSTRUMENTS\OPENCV300\INCLUDE\OPENCV2\OBJDETECT\DETECTION_BASED_TRACKER.HPP
D:\ННГУ\Программирование\C++\OPENCV\RECOLOR_NUMERALS_SUKHOV\INSTRUMENTS\OPENCV300\INCLUDE\OPENCV2\OBJDETECT\OBJDETECT_C.H
D:\PROGRAM FILES (X86)\VC\INCLUDE\DEQUE
D:\ННГУ\Программирование\C++\OPENCV\RECOLOR_NUMERALS_SUKHOV\INSTRUMENTS\OPENCV300\INCLUDE\OPENCV2\CALIB3D.HPP
D:\ННГУ\Программирование\C++\OPENCV\RECOLOR_NUMERALS_SUKHOV\INSTRUMENTS\OPENCV300\INCLUDE\OPENCV2\CORE\AFFINE.HPP
D:\ННГУ\Программирование\C++\OPENCV\RECOLOR_NUMERALS_SUKHOV\INSTRUMENTS\OPENCV300\INCLUDE\OPENCV2\CALIB3D\CALIB3D_C.H
D:\ННГУ\Программирование\C++\OPENCV\RECOLOR_NUMERALS_SUKHOV\INSTRUMENTS\OPENCV300\INCLUDE\OPENCV2\IMGCODECS.HPP
D:\ННГУ\Программирование\C++\OPENCV\RECOLOR_NUMERALS_SUKHOV\INSTRUMENTS\OPENCV300\INCLUDE\OPENCV2\VIDEOIO.HPP
D:\ННГУ\Программирование\C++\OPENCV\RECOLOR_NUMERALS_SUKHOV\INSTRUMENTS\OPENCV300\INCLUDE\OPENCV2\HIGHGUI.HPP
D:\ННГУ\Программирование\C++\OPENCV\RECOLOR_NUMERALS_SUKHOV\INSTRUMENTS\OPENCV300\INCLUDE\OPENCV2\HIGHGUI\HIGHGUI_C.H
D:\ННГУ\Программирование\C++\OPENCV\RECOLOR_NUMERALS_SUKHOV\INSTRUMENTS\OPENCV300\INCLUDE\OPENCV2\IMGCODECS\IMGCODECS_C.H
D:\ННГУ\Программирование\C++\OPENCV\RECOLOR_NUMERALS_SUKHOV\INSTRUMENTS\OPENCV300\INCLUDE\OPENCV2\VIDEOIO\VIDEOIO_C.H
D:\ННГУ\Программирование\C++\OPENCV\RECOLOR_NUMERALS_SUKHOV\INSTRUMENTS\OPENCV300\INCLUDE\OPENCV2\ML.HPP
D:\PROGRAM FILES (X86)\VC\INCLUDE\MAP
D:\PROGRAM FILES (X86)\VC\INCLUDE\TUPLE
D:\PROGRAM FILES (X86)\VC\INCLUDE\XTREE
